<?xml version="1.0" encoding="utf-8"?>
<!-- Generator: Adobe Illustrator 21.1.0, SVG Export Plug-In . SVG Version: 6.00 Build 0)  -->
<svg version="1.1" id="Слой_1" xmlns="http://www.w3.org/2000/svg" xmlns:xlink="http://www.w3.org/1999/xlink" x="0px" y="0px"
	 viewBox="0 0 158 153" style="enable-background:new 0 0 158 153;" xml:space="preserve">
<style type="text/css">
	.st0{fill:none;stroke:#F7CF2D;stroke-width:5;stroke-linecap:round;stroke-miterlimit:10;}
</style>
<g>
	<path class="st0" d="M81.9,67.9h54.7c4,0,7.4,4.3,7.4,9.5v0c0,5.2-3.3,9.5-7.4,9.5H99.9"/>
	<path class="st0" d="M98.5,86.9h48.9c4,0,7.4,4.3,7.4,9.5v0c0,5.2-3.3,9.5-7.4,9.5H98.5"/>
	<path class="st0" d="M98.5,105.9h40.7c4,0,7.4,4.3,7.4,9.5v0c0,5.2-3.3,9.5-7.4,9.5H98.5"/>
	<path class="st0" d="M98.5,124.9h28.6c4,0,7.4,4.3,7.4,9.5v0c0,5.2-3.3,9.5-7.4,9.5h-14.3H67.3c-4.7,0-9.2-2.4-12.5-6.7l-5.7-7.3"
		/>
	<path class="st0" d="M49.8,71.6L72,39.3c2.2-3.2,3.4-7.1,3.4-11V10.8c0-3.1,2.5-5.6,5.6-5.6h6.4c2.5,0,4.7,1.7,5.4,4.1l4.2,14.5
		c1.8,6.2,1.9,12.7,0.4,18.9l-6.2,25.3"/>
	<path class="st0" d="M37.2,148H15.7c-6.6,0-12-5.4-12-12V68.7c0-6.6,5.4-12,12-12h21.5c6.6,0,12,5.4,12,12V136
		C49.2,142.6,43.8,148,37.2,148z"/>
</g>
</svg>
