<?xml version="1.0" encoding="utf-8"?>
<!-- Generator: Adobe Illustrator 21.1.0, SVG Export Plug-In . SVG Version: 6.00 Build 0)  -->
<svg version="1.1" id="Слой_1" xmlns="http://www.w3.org/2000/svg" xmlns:xlink="http://www.w3.org/1999/xlink" x="0px" y="0px"
	 viewBox="0 0 27.4 30" style="enable-background:new 0 0 27.4 30;" xml:space="preserve">
<g>
	<path d="M21.6,0.5h-15c-1,0-1.8,0.8-1.8,1.8v9.9H2.1c-0.8,0-1.4,0.6-1.4,1.4v6.9c0,0.8,0.6,1.4,1.4,1.4h2.7v5.7
		c0,1,0.8,1.8,1.8,1.8h18.4c1,0,1.8-0.8,1.8-1.8V5.6L21.6,0.5z M4.6,14.6h2.2c1,0,1.7,0.4,1.7,1.5c0,1.2-0.8,1.6-1.8,1.6H5.3v2.1
		H4.6V14.6z M25.8,27.7c0,0.4-0.4,0.8-0.8,0.8H6.6c-0.4,0-0.8-0.4-0.8-0.8V22h13.3c0.8,0,1.4-0.6,1.4-1.4v-6.9
		c0-0.8-0.6-1.4-1.4-1.4H5.8V2.3c0-0.4,0.4-0.8,0.8-0.8H21V6h4.7l0,0V27.7z M9.3,19.9v-5.2H11c1.8,0,2.6,0.8,2.6,2.6
		c0,1.7-0.7,2.7-2.5,2.7H9.3z M17.6,16.9v0.6h-2.4v2.4h-0.7v-5.2H18v0.6h-2.7v1.6H17.6z"/>
	<path d="M11.1,15.2h-1v4h1c1.3,0,1.9-0.6,1.9-2C13,15.9,12.5,15.2,11.1,15.2z"/>
	<path d="M7.8,16.2c0-0.8-0.6-1-1.3-1H5.3v1.9h1.3C7.3,17.1,7.8,17,7.8,16.2z"/>
</g>
</svg>
