<?xml version="1.0" encoding="utf-8"?>
<!-- Generator: Adobe Illustrator 21.1.0, SVG Export Plug-In . SVG Version: 6.00 Build 0)  -->
<svg version="1.1" id="Слой_1" xmlns="http://www.w3.org/2000/svg" xmlns:xlink="http://www.w3.org/1999/xlink" x="0px" y="0px"
	 viewBox="0 0 69.6 15.8" style="enable-background:new 0 0 69.6 15.8;" xml:space="preserve">
<polygon points="69.6,7.7 53.6,1 53.6,5.2 0.6,5.2 0.6,10.2 53.6,10.2 53.6,14.5 "/>
</svg>
