<?xml version="1.0" encoding="utf-8"?>
<!-- Generator: Adobe Illustrator 21.1.0, SVG Export Plug-In . SVG Version: 6.00 Build 0)  -->
<svg version="1.1" id="Слой_1" xmlns="http://www.w3.org/2000/svg" xmlns:xlink="http://www.w3.org/1999/xlink" x="0px" y="0px"
	 viewBox="0 0 146.7 156.3" style="enable-background:new 0 0 146.7 156.3;" xml:space="preserve">
<style type="text/css">
	.st0{fill:none;stroke:#000000;stroke-width:5;stroke-linecap:round;stroke-miterlimit:10;}
	.st1{fill:none;stroke:#F7CF2D;stroke-width:5;stroke-linecap:round;stroke-miterlimit:10;}
</style>
<g>
	<path class="st1" d="M23,153.8h-7.5c-6.6,0-12-5.4-12-12v-41c0-6.6,5.4-12,12-12H23c6.6,0,12,5.4,12,12v41
		C35,148.4,29.6,153.8,23,153.8z"/>
	<polyline class="st0" points="67.4,98.4 67.4,6.1 141.2,6.1 141.2,152.4 108.7,152.4 	"/>
	<path class="st0" d="M118.1,56.9H91.6V33.4h26.5c6.5,0,11.8,5.3,11.8,11.8v0C129.8,51.6,124.5,56.9,118.1,56.9z"/>
	<line class="st0" x1="91.6" y1="40.6" x2="91.6" y2="90.8"/>
	<line class="st0" x1="81.2" y1="71.3" x2="101.5" y2="71.3"/>
	<line class="st0" x1="81.2" y1="56.9" x2="101.5" y2="56.9"/>
	<line class="st1" x1="52.1" y1="83.2" x2="35" y2="98.4"/>
	<polyline class="st0" points="56.3,98.4 37.1,26.4 67.5,18.3 	"/>
	<path class="st1" d="M56.1,98.4h59.4c3.7,0,6.8,3,6.8,6.8v0c0,3.7-3,6.8-6.8,6.8H81.7"/>
	<path class="st1" d="M80.4,111.9h45c3.7,0,6.8,3,6.8,6.8v0c0,3.7-3,6.8-6.8,6.8h-45"/>
	<path class="st1" d="M80.4,125.5h37.5c3.7,0,6.8,3,6.8,6.8v0c0,3.7-3,6.8-6.8,6.8H80.4"/>
	<path class="st1" d="M80.4,139h26.3c3.7,0,6.8,3,6.8,6.8l0,0c0,3.7-3,6.8-6.8,6.8H93.6H51.7c-4.3,0-8.5-1.7-11.5-4.8l-5.2-5.2"/>
</g>
</svg>
