<?xml version="1.0" encoding="utf-8"?>
<!-- Generator: Adobe Illustrator 19.2.0, SVG Export Plug-In . SVG Version: 6.00 Build 0)  -->
<svg version="1.1" id="Слой_1" xmlns="http://www.w3.org/2000/svg" xmlns:xlink="http://www.w3.org/1999/xlink" x="0px" y="0px"
	 viewBox="0 0 171 176.7" style="enable-background:new 0 0 171 176.7;" xml:space="preserve">
<style type="text/css">
	.st0{fill:none;stroke:#000000;stroke-width:5;stroke-linecap:round;stroke-miterlimit:10;}
	.st1{fill:none;stroke:#F7CF2D;stroke-width:5;stroke-linecap:round;stroke-miterlimit:10;}
</style>
<g>
	<path class="st0" d="M27.2,75.7H14.9c-2.3,0-4,2-3.8,4.3l2.5,19.2l15.3-8.6l2-10.4C31.3,77.9,29.6,75.7,27.2,75.7z"/>
	<path class="st0" d="M141.1,75.7h12.3c2.3,0,4,2,3.8,4.3l-2.5,19.2l-15.3-8.6l-2-10.4C136.9,77.9,138.7,75.7,141.1,75.7z"/>
	<path class="st0" d="M92.2,31.9l-3.7-2.8c-2.6-1.9-6.1-1.9-8.7,0L76,31.9"/>
	<line class="st0" x1="71.6" y1="157.5" x2="96.3" y2="157.5"/>
	<path class="st1" d="M84.1,173.9h6.4c1.8,0,3.3-1.3,3.6-3l5.3-28.6c0-0.2,0.1-0.4,0.1-0.7V36.7c0-2.4-0.4-4.7-1.1-7l-5-16
		c-2.8-9.2-15.8-9.2-18.7,0l-5,16c-0.7,2.3-1.1,4.6-1.1,7v104.9c0,0.2,0,0.4,0.1,0.7l5.3,28.6c0.3,1.7,1.8,3,3.6,3L84.1,173.9
		L84.1,173.9z"/>
	<path class="st1" d="M68.7,68.8L5,103.9c-1.1,0.6-1.7,1.7-1.7,3v12.2c0,2.2,2.1,3.8,4.2,3.3l61.3-16.1V68.8H68.7z"/>
	<path class="st1" d="M99.5,68.8l63.7,35.1c1.1,0.6,1.7,1.7,1.7,3v12.2c0,2.2-2.1,3.8-4.2,3.3l-61.3-16.1V68.8H99.5z"/>
	<path class="st1" d="M69.5,146.2l-28.1,14.5c-0.7,0.4-1.1,1.1-1.1,1.8v9c0,1.2,1.1,2.2,2.3,2l31.1-4.2"/>
	<path class="st1" d="M99.8,146.2l28.1,14.5c0.7,0.4,1.1,1.1,1.1,1.8v9c0,1.2-1.1,2.2-2.3,2l-31.1-4.2"/>
</g>
</svg>
