<?xml version="1.0" encoding="utf-8"?>
<!-- Generator: Adobe Illustrator 21.1.0, SVG Export Plug-In . SVG Version: 6.00 Build 0)  -->
<svg version="1.1" id="Слой_1" xmlns="http://www.w3.org/2000/svg" xmlns:xlink="http://www.w3.org/1999/xlink" x="0px" y="0px"
	 viewBox="0 0 165.5 227" style="enable-background:new 0 0 165.5 227;" xml:space="preserve">
<style type="text/css">
	.st0{fill:none;stroke:#000000;stroke-width:5;stroke-linecap:round;stroke-miterlimit:10;}
	.st1{fill:none;stroke:#F7CF2D;stroke-width:5;stroke-linecap:round;stroke-miterlimit:10;}
</style>
<g>
	<path class="st0" d="M44,66.5v20.8c0,22.1,18.1,40.3,40.3,40.3l0,0c22.1,0,40.3-18.1,40.3-40.3V66.5"/>
	<path class="st0" d="M34,60.6v-5.1c0-26.4,21.6-48,48-48h0c26.4,0,48,21.6,48,48v5.1c0,2.4-1.9,4.4-4.3,4.5
		c-5.9,0.3-15.7-1.2-15.7-14.6c0-7-28-7-28-7s-28,0-28,7c0,13.3-9.9,14.9-15.7,14.6C35.9,64.9,34,63,34,60.6z"/>
	<path class="st0" d="M44,90c-6.9,0-12.5-5.6-12.5-12.5v0C31.5,70.6,37.1,65,44,65"/>
	<path class="st0" d="M125,65L125,65c6.9,0,12.5,5.6,12.5,12.5v0c0,6.9-5.6,12.5-12.5,12.5h0"/>
	<line class="st0" x1="67" y1="123.5" x2="67" y2="135.5"/>
	<line class="st0" x1="101" y1="123.5" x2="101" y2="135.5"/>
	<path class="st1" d="M67.1,137.2l12.4,17.9c1,1.5,0.5,3.6-1.2,4.3l-10,4.4c-1.5,0.7-3.2,0-3.9-1.5l-7.9-18.9
		c-0.6-1.3,0-2.9,1.2-3.6l5.5-3.3C64.5,135.6,66.2,136,67.1,137.2z"/>
	<path class="st1" d="M97.2,137.2l-12.4,17.9c-1,1.5-0.5,3.6,1.2,4.3l10,4.4c1.5,0.7,3.2,0,3.9-1.5l7.9-18.9c0.6-1.3,0-2.9-1.2-3.6
		l-5.5-3.3C99.8,135.6,98.1,136,97.2,137.2z"/>
	<line class="st1" x1="83" y1="156.5" x2="83" y2="190.5"/>
	<path class="st1" d="M108.4,140.9l34.1,12.4c2.2,0.8,3.8,2.6,4.3,4.9l12.4,56.1c0.9,4.2-2.3,8.2-6.6,8.2H83h-1H12.4
		c-4.3,0-7.5-4-6.6-8.2l12.4-56.1c0.5-2.3,2.1-4.1,4.3-4.9l34.1-12.4"/>
	<line class="st1" x1="36.5" y1="222" x2="36.5" y2="189"/>
	<line class="st1" x1="131" y1="222.5" x2="131" y2="189.5"/>
</g>
</svg>
