<?xml version="1.0" encoding="utf-8"?>
<!-- Generator: Adobe Illustrator 21.1.0, SVG Export Plug-In . SVG Version: 6.00 Build 0)  -->
<svg version="1.1" id="Слой_1" xmlns="http://www.w3.org/2000/svg" xmlns:xlink="http://www.w3.org/1999/xlink" x="0px" y="0px"
	 viewBox="0 0 198 170" style="enable-background:new 0 0 198 170;" xml:space="preserve">
<style type="text/css">
	.st0{fill:none;stroke:#F7CF2D;stroke-width:5;stroke-linecap:round;stroke-miterlimit:10;}
	.st1{fill:none;stroke:#000000;stroke-width:5;stroke-linecap:round;stroke-miterlimit:10;}
</style>
<g>
	<polyline class="st0" points="44.2,41.3 111.3,17.1 119.4,39.4 	"/>
	
		<rect x="75.4" y="28.3" transform="matrix(0.9399 -0.3415 0.3415 0.9399 -6.0188 30.0017)" class="st0" width="13.6" height="7.6"/>
	
		<rect x="83.6" y="50.8" transform="matrix(0.9399 -0.3415 0.3415 0.9399 -13.2067 34.1431)" class="st0" width="13.6" height="7.6"/>
	<polyline class="st0" points="52.4,64 119.5,39.6 147.3,116.1 	"/>
	<path class="st1" d="M77.2,131.8L32.5,8.9l0,0c-1.2-3.4-5-5.2-8.5-4l0,0L4,12.2"/>
	<line class="st1" x1="153.1" y1="114.3" x2="88.9" y2="137.6"/>
	
		<ellipse transform="matrix(0.9399 -0.3415 0.3415 0.9399 -46.1563 35.0564)" class="st1" cx="76.5" cy="148.6" rx="16.5" ry="16.5"/>
	<ellipse transform="matrix(0.9399 -0.3415 0.3415 0.9399 -46.1563 35.0564)" class="st1" cx="76.5" cy="148.6" rx="5" ry="5"/>
</g>
</svg>
