<?xml version="1.0" encoding="utf-8"?>
<!-- Generator: Adobe Illustrator 21.1.0, SVG Export Plug-In . SVG Version: 6.00 Build 0)  -->
<svg version="1.1" id="Слой_1" xmlns="http://www.w3.org/2000/svg" xmlns:xlink="http://www.w3.org/1999/xlink" x="0px" y="0px"
	 viewBox="0 0 200 160" style="enable-background:new 0 0 200 160;" xml:space="preserve">
<style type="text/css">
	.st0{fill:none;stroke:#F7CF2D;stroke-width:5;stroke-linecap:round;stroke-miterlimit:10;}
	.st1{fill:none;stroke:#000000;stroke-width:5;stroke-linecap:round;stroke-miterlimit:10;}
</style>
<g>
	<g>
		<line class="st0" x1="23.5" y1="18.9" x2="94.9" y2="18.9"/>
		<line class="st0" x1="23.5" y1="36.5" x2="94.9" y2="36.5"/>
		<line class="st0" x1="23.5" y1="54" x2="94.9" y2="54"/>
		<line class="st0" x1="23.5" y1="71.6" x2="94.9" y2="71.6"/>
		<line class="st0" x1="23.5" y1="89.2" x2="94.9" y2="89.2"/>
		<line class="st0" x1="23.5" y1="106.8" x2="94.9" y2="106.8"/>
		<line class="st0" x1="23.5" y1="124.3" x2="94.9" y2="124.3"/>
		<line class="st0" x1="23.5" y1="141.9" x2="94.9" y2="141.9"/>
	</g>
	<line class="st0" x1="105" y1="54.3" x2="176.5" y2="54.3"/>
	<g>
		<path class="st1" d="M16.8,155.6h3c1.9,0,3.4-1.5,3.4-3.4V8.9c0-1.9-1.5-3.4-3.4-3.4h-3c-1.9,0-3.4,1.5-3.4,3.4v143.4
			C13.4,154.1,14.9,155.6,16.8,155.6z"/>
		<path class="st1" d="M98.3,155.6h3c1.9,0,3.4-1.5,3.4-3.4V8.9c0-1.9-1.5-3.4-3.4-3.4h-3c-1.9,0-3.4,1.5-3.4,3.4v143.4
			C94.9,154.1,96.4,155.6,98.3,155.6z"/>
		<path class="st1" d="M179.9,155.6h3c1.9,0,3.4-1.2,3.4-2.5V46.3c0-1.4-1.5-2.5-3.4-2.5h-3c-1.9,0-3.4,1.2-3.4,2.5v106.8
			C176.5,154.5,178,155.6,179.9,155.6z"/>
	</g>
	<line class="st0" x1="4" y1="156" x2="32.9" y2="156"/>
	<line class="st0" x1="85.5" y1="156" x2="114.4" y2="156"/>
	<line class="st0" x1="167.1" y1="156" x2="195.9" y2="156"/>
</g>
</svg>
