<?xml version="1.0" encoding="utf-8"?>
<!-- Generator: Adobe Illustrator 21.1.0, SVG Export Plug-In . SVG Version: 6.00 Build 0)  -->
<svg version="1.1" id="Слой_1" xmlns="http://www.w3.org/2000/svg" xmlns:xlink="http://www.w3.org/1999/xlink" x="0px" y="0px"
	 viewBox="0 0 200 160" style="enable-background:new 0 0 200 160;" xml:space="preserve">
<style type="text/css">
	.st0{fill:none;stroke:#F7CF2D;stroke-width:5;stroke-linecap:round;stroke-miterlimit:10;}
	.st1{fill:none;stroke:#000000;stroke-width:5;stroke-linecap:round;stroke-miterlimit:10;}
</style>
<g>
	<path class="st0" d="M23.5,156H16c-6.6,0-12-5.4-12-12v-41c0-6.6,5.4-12,12-12h7.5c6.6,0,12,5.4,12,12v41
		C35.5,150.6,30.1,156,23.5,156z"/>
	<polyline class="st1" points="68,100.6 68,8.3 141.7,8.3 141.7,154.6 109.2,154.6 	"/>
	<path class="st1" d="M118.6,59.1H92.1V35.6h26.5c6.5,0,11.8,5.3,11.8,11.8v0C130.4,53.8,125.1,59.1,118.6,59.1z"/>
	<line class="st1" x1="92.1" y1="42.8" x2="92.1" y2="93"/>
	<line class="st1" x1="81.7" y1="73.5" x2="102.1" y2="73.5"/>
	<line class="st1" x1="81.7" y1="59.1" x2="102.1" y2="59.1"/>
	<line class="st0" x1="52.6" y1="85.4" x2="35.5" y2="100.6"/>
	<polyline class="st1" points="56.8,100.6 37.7,28.6 68,20.5 	"/>
	<path class="st0" d="M56.6,100.6H116c3.7,0,6.8,3,6.8,6.8v0c0,3.7-3,6.8-6.8,6.8H82.2"/>
	<path class="st0" d="M80.9,114.1h45c3.7,0,6.8,3,6.8,6.8v0c0,3.7-3,6.8-6.8,6.8h-45"/>
	<path class="st0" d="M80.9,127.7h37.5c3.7,0,6.8,3,6.8,6.8v0c0,3.7-3,6.8-6.8,6.8H80.9"/>
	<path class="st0" d="M80.9,141.3h26.3c3.7,0,6.8,3,6.8,6.8v0c0,3.7-3,6.8-6.8,6.8H94.1H52.2c-4.3,0-8.5-1.7-11.5-4.8l-5.2-5.2"/>
</g>
</svg>
