<?xml version="1.0" encoding="utf-8"?>
<!-- Generator: Adobe Illustrator 21.1.0, SVG Export Plug-In . SVG Version: 6.00 Build 0)  -->
<svg version="1.1" id="Capa_1" xmlns="http://www.w3.org/2000/svg" xmlns:xlink="http://www.w3.org/1999/xlink" x="0px" y="0px"
	 viewBox="0 0 62.5 64.7" style="enable-background:new 0 0 62.5 64.7;" xml:space="preserve">
<style type="text/css">
	.st0{fill:#FFFFFF;}
</style>
<g>
	<path class="st0" d="M31.3,1.3c-17.1,0-31,13.9-31,31c0,17.1,13.9,31,31,31s31-13.9,31-31C62.2,15.2,48.3,1.3,31.3,1.3z M4.3,32.3
		c0-14.9,12.1-27,27-27c14.9,0,27,12.1,27,27s-12.1,27-27,27C16.4,59.3,4.3,47.2,4.3,32.3z"/>
	<path class="st0" d="M20.3,34.2h6.4c0.8,1.8,2.6,3,4.6,3c2.8,0,5-2.2,5-5c0-2-1.2-3.8-3-4.6v-9.4c0-1.1-0.9-2-2-2c-1.1,0-2,0.9-2,2
		v9.4c-1.1,0.5-2.1,1.4-2.6,2.6h-6.4c-1.1,0-2,0.9-2,2C18.3,33.3,19.1,34.2,20.3,34.2z M31.3,33.2c-0.6,0-1-0.4-1-1c0-0.6,0.4-1,1-1
		s1,0.4,1,1C32.2,32.8,31.8,33.2,31.3,33.2z"/>
	<path class="st0" d="M31.3,13.2c1.1,0,2-0.9,2-2v-1c0-1.1-0.9-2-2-2c-1.1,0-2,0.9-2,2v1C29.3,12.3,30.1,13.2,31.3,13.2z"/>
	<path class="st0" d="M31.3,51.2c-1.1,0-2,0.9-2,2v1c0,1.1,0.9,2,2,2c1.1,0,2-0.9,2-2v-1C33.2,52.1,32.4,51.2,31.3,51.2z"/>
	<path class="st0" d="M52.2,34.2h1c1.1,0,2-0.9,2-2c0-1.1-0.9-2-2-2h-1c-1.1,0-2,0.9-2,2C50.2,33.3,51.1,34.2,52.2,34.2z"/>
	<path class="st0" d="M10.3,30.2h-1c-1.1,0-2,0.9-2,2c0,1.1,0.9,2,2,2h1c1.1,0,2-0.9,2-2C12.3,31.1,11.4,30.2,10.3,30.2z"/>
	<path class="st0" d="M46.1,19.4c0.5,0,1-0.2,1.4-0.6l0.7-0.7c0.8-0.8,0.8-2,0-2.8c-0.8-0.8-2-0.8-2.8,0l-0.7,0.7
		c-0.4,0.4-0.6,0.9-0.6,1.4c0,0.5,0.2,1,0.6,1.4C45.1,19.2,45.6,19.4,46.1,19.4z"/>
	<path class="st0" d="M15.7,49.8c0.5,0,1-0.2,1.4-0.6l0.7-0.7c0.4-0.4,0.6-0.9,0.6-1.4c0-0.5-0.2-1-0.6-1.4c-0.8-0.8-2.1-0.8-2.8,0
		l-0.7,0.7c-0.4,0.4-0.6,0.9-0.6,1.4c0,0.5,0.2,1,0.6,1.4C14.7,49.6,15.2,49.8,15.7,49.8z"/>
	<path class="st0" d="M45.4,49.2c0.4,0.4,0.9,0.6,1.4,0.6c0.5,0,1-0.2,1.4-0.6c0.8-0.8,0.8-2,0-2.8l-0.7-0.7
		c-0.4-0.4-0.9-0.6-1.4-0.6c0,0,0,0,0,0c-0.5,0-1,0.2-1.4,0.6c-0.4,0.4-0.6,0.9-0.6,1.4c0,0.5,0.2,1,0.6,1.4L45.4,49.2z"/>
	<path class="st0" d="M15,18.8c0.4,0.4,0.9,0.6,1.4,0.6c0.5,0,1-0.2,1.4-0.6c0.4-0.4,0.6-0.9,0.6-1.4c0-0.5-0.2-1-0.6-1.4l-0.7-0.7
		c-0.8-0.8-2-0.8-2.8,0c-0.4,0.4-0.6,0.9-0.6,1.4c0,0.5,0.2,1,0.6,1.4L15,18.8z"/>
</g>
</svg>
