<?xml version="1.0" encoding="utf-8"?>
<!-- Generator: Adobe Illustrator 21.1.0, SVG Export Plug-In . SVG Version: 6.00 Build 0)  -->
<svg version="1.1" id="Слой_1" xmlns="http://www.w3.org/2000/svg" xmlns:xlink="http://www.w3.org/1999/xlink" x="0px" y="0px"
	 viewBox="0 0 200 168" style="enable-background:new 0 0 200 168;" xml:space="preserve">
<style type="text/css">
	.st0{fill:none;stroke:#000000;stroke-width:5;stroke-linecap:round;stroke-miterlimit:10;}
	.st1{fill:none;stroke:#F7CF2D;stroke-width:5;stroke-linecap:round;stroke-miterlimit:10;}
</style>
<g>
	<path class="st0" d="M75.7,90.9l-8.5,17.7c-2.3,4.8-8.1,4.8-10.4,0l-8.5-17.7c-24.8,4.5-43.8,27.7-43.8,55.8v7.9h115.1v-7.9
		C119.5,118.6,100.5,95.3,75.7,90.9z"/>
	<path class="st0" d="M119.5,154.6h76.3v-7.9c0-28.1-18.9-51.3-43.8-55.8l-8.5,17.7c-2.3,4.8-8.1,4.8-10.4,0l-8.5-17.7
		c-9.1,1.6-17.5,5.8-24.4,11.9"/>
	<path class="st1" d="M61.9,94.4L61.9,94.4c-14,0-25.3-11.3-25.3-25.3V12.9h27.3c12.9,0,23.3,10.5,23.3,23.3v32.9
		C87.2,83.1,75.9,94.4,61.9,94.4z"/>
	<path class="st1" d="M87.2,39.6H50.7c-7.8,0-14.1-5.6-14.1-12.6V12.9"/>
	<path class="st1" d="M138.2,94.4L138.2,94.4c-14,0-25.3-11.3-25.3-25.3V12.9h27.3c12.9,0,23.3,10.5,23.3,23.3v32.9
		C163.5,83.1,152.2,94.4,138.2,94.4z"/>
	<path class="st1" d="M163.5,39.6H127c-7.8,0-14.1-5.6-14.1-12.6V12.9"/>
</g>
</svg>
